{
  "project_info": {
    "project_number": "515521943546",
    "firebase_url": "https://mobileproject-6c602.firebaseio.com",
    "project_id": "mobileproject-6c602",
    "storage_bucket": "mobileproject-6c602.appspot.com"
  },
  "client": [
    {
      "client_info": {
        "mobilesdk_app_id": "1:515521943546:android:13d98dcfcc58fa20",
        "android_client_info": {
          "package_name": "com.example.cbk12_000.mobileproject"
        }
      },
      "oauth_client": [
        {
          "client_id": "515521943546-pculdpdprj20g7ge8r255endspn98ucf.apps.googleusercontent.com",
          "client_type": 1,
          "android_info": {
            "package_name": "com.example.cbk12_000.mobileproject",
            "certificate_hash": "94e608d7440b7b85c776fe82d1aa1704d5f749e3"
          }
        },
        {
          "client_id": "515521943546-qn2c65h4ekb6mdrmqml6ofndei87uhm0.apps.googleusercontent.com",
          "client_type": 3
        }
      ],
      "api_key": [
        {
          "current_key": "AIzaSyBwC9lDPJuHmXZOGzhiPlMDYC0GZZ8ekr4"
        }
      ],
      "services": {
        "analytics_service": {
          "status": 1
        },
        "appinvite_service": {
          "status": 2,
          "other_platform_oauth_client": [
            {
              "client_id": "515521943546-qn2c65h4ekb6mdrmqml6ofndei87uhm0.apps.googleusercontent.com",
              "client_type": 3
            }
          ]
        },
        "ads_service": {
          "status": 2
        }
      }
    }
  ],
  "configuration_version": "1"
}