^C:\USERS\POWIE\DOCUMENTS\MOBILEPROJECT\MOBILEPROJECT\CONVERTER\CONVERTER\SOURCE.CPP
C:\USERS\POWIE\DOCUMENTS\MOBILEPROJECT\MOBILEPROJECT\CONVERTER\CONVERTER\DEBUG\VC141.PDB
C:\USERS\POWIE\DOCUMENTS\MOBILEPROJECT\MOBILEPROJECT\CONVERTER\CONVERTER\DEBUG\VC141.IDB
C:\USERS\POWIE\DOCUMENTS\MOBILEPROJECT\MOBILEPROJECT\CONVERTER\CONVERTER\DEBUG\SOURCE.OBJ
